{
    "openapi": "3.0.0",
    "info": {
        "title": "API TUTORIEL",
        "version": "0.1"
    },
    "servers": [
        {
            "url": "http://api.tutoriel.fr/v1",
            "description": "Mon ap"
        }
    ]
}